Modechoice Model Investigation
…
Utah Mode Choice Model

First I will be analyzing the Utah Statewide Mode Choice Models coefficients and constants. I got this information from Natalie. I have no idea where it came from, except for this site: (https://byu.app.box.com/s/rmyv38tjqkvbg7nz5uqf6djiake9csfm/folder/145843487263) All the data exists in separate text files, so I will read them all in and attempt to create one table to house all the data.

Reading in Data

Here we read in the coefficient values and create a table of them. To be specific, 5 separate files are read in and parsed to create one table.

cf_files <- list.files("model_data/utah_statewide/coeffs/coeffs/")
cf_path <- "model_data/utah_statewide/coeffs/coeffs/"
utah_coeff <- read_utah_cf(cf_files,cf_path)
tibble(utah_coeff)

## # A tibble: 35 x 5
##    purpose variable           variable_type   value description                 
##    <chr>   <chr>              <chr>           <dbl> <chr>                       
##  1 HBC     ivt_coef           coefficient   -0.025  IN-VEHICLE TIME             
##  2 HBC     walk_coef_1        coefficient   -0.05   FIRST MILE OF WALK/OUT-OF-V~
##  3 HBC     walk_coef_gt_1     coefficient   -0.075  OVER 1 MILE WALK/OUT-OF-VEH~
##  4 HBC     bike_coef          coefficient   -0.05   BIKE TIME                   
##  5 HBC     cost_coef          coefficient   -0.0025 AUTO OPERATING COST/TRANSIT~
##  6 HBC     parkcost_coef      coefficient   -0.0025 PARKING COST (USING MEDIAN ~
##  7 HBC     zonal_urbanization coefficient    0      TRANSIT BIAS - ZONAL URBANI~
##  8 HBO     ivt_coef           coefficient   -0.035  IN-VEHICLE TIME             
##  9 HBO     walk_coef_1        coefficient   -0.07   FIRST MILE OF WALK/OUT-OF-V~
## 10 HBO     walk_coef_gt_1     coefficient   -0.105  OVER 1 MILE WALK/OUT-OF-VEH~
## # ... with 25 more rows
…
WFRC 2019

WFRC Mode Choice Model

In this section I read in and analyze the mode choice coefficients and constants that below to the Wasatch Front Regional Councils (WFRC) model from 2019. The data comes in multiple text files, so they will all be read and parsed to create a joint table with all the information.

Here, I read in the values that correspond to all the coefficient values. 4 text files are read in to be parsed and then combined.

coeff_files <- list.files("model_data/wfrc/coeffs/coeffs/")
coeff_path <- "model_data/wfrc/coeffs/coeffs/"
wfrc_coeff <- read_wfrc_cf(coeff_files,coeff_path)
tibble(wfrc_coeff)

## # A tibble: 80 x 5
##    purpose variable            variable_type   value description                
##    <chr>   <chr>               <chr>           <dbl> <chr>                      
##  1 HBC     ivt_coef_hbc        coefficient   -0.025  IN-VEHICLE TIME            
##  2 HBC     initwait_coef_hbc   coefficient   -0.05   FIRST TRANSIT WAIT TIME    
##  3 HBC     xferwait_coef_hbc   coefficient   -0.075  TRANSIT TRANSFER WAIT TIME 
##  4 HBC     walk_coef_1_hbc     coefficient   -0.05   FIRST MILE OF WALK/OUT-OF-~
##  5 HBC     walk_coef_gt_1_hbc  coefficient   -0.075  OVER 1 MILE WALK/OUT-OF-VE~
##  6 HBC     drive_coef_hbc      coefficient   -0.0375 DRIVE ACCESS TO TRANSIT TI~
##  7 HBC     bike_coef_hbc       coefficient   -0.05   BIKE TIME                  
##  8 HBC     cost_coef_hbc       coefficient   -0.0025 AUTO OPERATING COST/TRANSI~
##  9 HBC     parkcost_coef_hbc   coefficient   -0.0025 PARKING COST               
## 10 HBC     premium_walk_access coefficient    0.25   WALK DIRECTLY TO RAIL DUMMY
## # ... with 70 more rows

Here I read in the constant values. There are a total of 7 text files that are parsed through and combined into one table.

const_files <- list.files("model_data/wfrc/coeffs/const/")
const_path <- "model_data/wfrc/coeffs/const/"
wfrc_const <- read_wfrc_cst(const_files,const_path)
tibble(wfrc_const)

## # A tibble: 478 x 4
##    purpose variable     variable_type   value
##    <chr>   <chr>        <chr>           <dbl>
##  1 HBC_Pk  asc_motor    constant       0     
##  2 HBC_Pk  asc_nonmotor constant       0.608 
##  3 HBC_Pk  asc_auto     constant       0     
##  4 HBC_Pk  asc_transit  constant      -0.523 
##  5 HBC_Pk  asc_alone    constant       0     
##  6 HBC_Pk  asc_shared   constant      -0.902 
##  7 HBC_Pk  asc_hov      constant       0.0625
##  8 HBC_Pk  asc_toll     constant      -0.25  
##  9 HBC_Pk  asc_sr2      constant       0     
## 10 HBC_Pk  asc_sr3      constant      -0.239 
## # ... with 468 more rows
…
Combined Values

Now lets combine all the coefficient values into one table. It will have the HBW, HBO, and NHB tour types. Also, remember that there are no default constant parameter values found in the NCHRP report because these are entirely specfic to the model at hand.

nchrp_coeff <- rbind(nchrp_hbw,nchrp_hbo,nchrp_nhb)
tibble(nchrp_coeff)

## # A tibble: 24 x 5
##    purpose variable      variable_type model_source   value
##    <fct>   <fct>         <fct>         <fct>          <dbl>
##  1 HBW     ivt_coef      coefficient   H            -0.033 
##  2 HBW     ovt_coef      coefficient   I            -0.05  
##  3 HBW     walk_coef     coefficient   H            -0.093 
##  4 HBW     initwait_coef coefficient   H            -0.038 
##  5 HBW     xferwait_coef coefficient   H            -0.038 
##  6 HBW     cost_coef     coefficient   H            -0.0021
##  7 HBO     ivt_coef      coefficient   I            -0.008 
##  8 HBO     ovt_coef      coefficient   I            -0.025 
##  9 HBO     walk_coef     coefficient   J            -0.075 
## 10 HBO     initwait_coef coefficient   J            -0.05  
## # ... with 14 more rows
…
ActivitySim Tour Model

The parameters and utility values that correspond to the MTC/ActivitySim model is not hard to get. Since ActivitySim is on GitHub, the tour mode choice coefficients are found here: ActivitySim Tour Mode Choice Values

That file was copied, and the table is read in.

asim_tour_coeffs <- read_table2("model_data/mtc/mtc_2012_tour_mode_choice_coefficients_path.txt")

# multiply all values in table by 2 (tour values need to be compared with trip values later on, and this will allow that)
cols <- sapply(asim_tour_coeffs, is.numeric)
asim_tour_coeffs[, cols] <- asim_tour_coeffs[, cols] * 2
tibble(asim_tour_coeffs) 

## # A tibble: 32 x 11
##    Variable       Work College School Escort   Shop Eat_Out Maint. Social Discr.
##    <chr>         <dbl>   <dbl>  <dbl>  <dbl>  <dbl>   <dbl>  <dbl>  <dbl>  <dbl>
##  1 ivtt_auto_b~ -0.026  -0.044 -0.044 -0.036 -0.036  -0.036 -0.036 -0.036 -0.036
##  2 ivtt_light_~ -0.024  -0.04  -0.04  -0.032 -0.032  -0.032 -0.032 -0.032 -0.032
##  3 ivtt_ferry   -0.022  -0.036 -0.036 -0.028 -0.028  -0.028 -0.028 -0.028 -0.028
##  4 ivtt_expres~ -0.026  -0.044 -0.044 -0.036 -0.036  -0.036 -0.036 -0.036 -0.036
##  5 ivtt_heavy_~ -0.022  -0.036 -0.036 -0.028 -0.028  -0.028 -0.028 -0.028 -0.028
##  6 wait_time_u~ -0.054  -0.09  -0.09  -0.07  -0.07   -0.07  -0.07  -0.07  -0.07 
##  7 wait_time_o~ -0.026  -0.044 -0.044 -0.036 -0.036  -0.036 -0.036 -0.036 -0.036
##  8 egress_time  -0.054  -0.09  -0.09  -0.07  -0.07   -0.07  -0.07  -0.07  -0.07 
##  9 transfer_ti~ -0.054  -0.09  -0.09  -0.07  -0.07   -0.07  -0.07  -0.07  -0.07 
## 10 origin_clos~ -0.358  -0.598 -0.598 -0.466 -0.466  -0.466 -0.466 -0.466 -0.466
## # ... with 22 more rows, and 1 more variable: At-Work <dbl>
…
